%YAML 1.1
%TAG !u! tag:unity3d.com,2011:
--- !u!114 &11400000
MonoBehaviour:
  m_ObjectHideFlags: 0
  m_CorrespondingSourceObject: {fileID: 0}
  m_PrefabInstance: {fileID: 0}
  m_PrefabAsset: {fileID: 0}
  m_GameObject: {fileID: 0}
  m_Enabled: 1
  m_EditorHideFlags: 0
  m_Script: {fileID: 11500000, guid: 4b3fc974b6c0584488e5ca2045b9ccd4, type: 3}
  m_Name: Yellow_GroundMonster
  m_EditorClassIdentifier: 
  unitType: 1
  characterName: Yellow Ground Monster
  runSpeed: 25
  jumpForce: 14.2
  tapJumpForcePercent: 0.62
  movementSmoothing: 0.05
  airControl: 1
  airHangTime: 0.3
  jumpBufferTime: 0.1
  defaultPhysicsMat: {fileID: 6200000, guid: feb4f50152ffb0b4e89c73d30d15b733, type: 2}
  coarsePhysicsMat: {fileID: 6200000, guid: a6bf1a79bc4c80347a43401ccccd345c, type: 2}
  colour: 2
  holdBoxMovementPenalty: 0.82
  limitRangeOfBeingControlled: 1
  rageLimit: 100
  rateOfRage: 20
  grabPlayerRadius: 0
  grabPlayerDuration: 0
