%YAML 1.1
%TAG !u! tag:unity3d.com,2011:
--- !u!1001 &4375157711056469037
PrefabInstance:
  m_ObjectHideFlags: 0
  serializedVersion: 2
  m_Modification:
    m_TransformParent: {fileID: 0}
    m_Modifications:
    - target: {fileID: 559604729320515999, guid: 7ed9f69a450436c4281690d3df013617,
        type: 3}
      propertyPath: m_Color.b
      value: 0
      objectReference: {fileID: 0}
    - target: {fileID: 559604729320515999, guid: 7ed9f69a450436c4281690d3df013617,
        type: 3}
      propertyPath: m_Color.g
      value: 0
      objectReference: {fileID: 0}
    - target: {fileID: 559604729320515999, guid: 7ed9f69a450436c4281690d3df013617,
        type: 3}
      propertyPath: m_Color.r
      value: 1
      objectReference: {fileID: 0}
    - target: {fileID: 2319628425063018880, guid: 7ed9f69a450436c4281690d3df013617,
        type: 3}
      propertyPath: m_Name
      value: GroundMonster_Red
      objectReference: {fileID: 0}
    - target: {fileID: 2970492248218354692, guid: 7ed9f69a450436c4281690d3df013617,
        type: 3}
      propertyPath: m_AnchorMax.x
      value: 0
      objectReference: {fileID: 0}
    - target: {fileID: 2970492248218354692, guid: 7ed9f69a450436c4281690d3df013617,
        type: 3}
      propertyPath: m_AnchorMax.y
      value: 0
      objectReference: {fileID: 0}
    - target: {fileID: 6059661480183065805, guid: 7ed9f69a450436c4281690d3df013617,
        type: 3}
      propertyPath: _characterInfo
      value: 
      objectReference: {fileID: 11400000, guid: efbcd341bbf921a4cb86e5f432411da8,
        type: 2}
    - target: {fileID: 7371381472037719950, guid: 7ed9f69a450436c4281690d3df013617,
        type: 3}
      propertyPath: m_RootOrder
      value: 0
      objectReference: {fileID: 0}
    - target: {fileID: 7371381472037719950, guid: 7ed9f69a450436c4281690d3df013617,
        type: 3}
      propertyPath: m_LocalPosition.x
      value: 0
      objectReference: {fileID: 0}
    - target: {fileID: 7371381472037719950, guid: 7ed9f69a450436c4281690d3df013617,
        type: 3}
      propertyPath: m_LocalPosition.y
      value: 0
      objectReference: {fileID: 0}
    - target: {fileID: 7371381472037719950, guid: 7ed9f69a450436c4281690d3df013617,
        type: 3}
      propertyPath: m_LocalPosition.z
      value: 0
      objectReference: {fileID: 0}
    - target: {fileID: 7371381472037719950, guid: 7ed9f69a450436c4281690d3df013617,
        type: 3}
      propertyPath: m_LocalRotation.w
      value: 1
      objectReference: {fileID: 0}
    - target: {fileID: 7371381472037719950, guid: 7ed9f69a450436c4281690d3df013617,
        type: 3}
      propertyPath: m_LocalRotation.x
      value: 0
      objectReference: {fileID: 0}
    - target: {fileID: 7371381472037719950, guid: 7ed9f69a450436c4281690d3df013617,
        type: 3}
      propertyPath: m_LocalRotation.y
      value: 0
      objectReference: {fileID: 0}
    - target: {fileID: 7371381472037719950, guid: 7ed9f69a450436c4281690d3df013617,
        type: 3}
      propertyPath: m_LocalRotation.z
      value: 0
      objectReference: {fileID: 0}
    - target: {fileID: 7371381472037719950, guid: 7ed9f69a450436c4281690d3df013617,
        type: 3}
      propertyPath: m_LocalEulerAnglesHint.x
      value: 0
      objectReference: {fileID: 0}
    - target: {fileID: 7371381472037719950, guid: 7ed9f69a450436c4281690d3df013617,
        type: 3}
      propertyPath: m_LocalEulerAnglesHint.y
      value: 0
      objectReference: {fileID: 0}
    - target: {fileID: 7371381472037719950, guid: 7ed9f69a450436c4281690d3df013617,
        type: 3}
      propertyPath: m_LocalEulerAnglesHint.z
      value: 0
      objectReference: {fileID: 0}
    - target: {fileID: 7895196032787040664, guid: 7ed9f69a450436c4281690d3df013617,
        type: 3}
      propertyPath: monsterInfo
      value: 
      objectReference: {fileID: 11400000, guid: efbcd341bbf921a4cb86e5f432411da8,
        type: 2}
    - target: {fileID: 8492474969869924815, guid: 7ed9f69a450436c4281690d3df013617,
        type: 3}
      propertyPath: m_AnchorMax.x
      value: 0
      objectReference: {fileID: 0}
    - target: {fileID: 8492474969869924815, guid: 7ed9f69a450436c4281690d3df013617,
        type: 3}
      propertyPath: m_AnchorMax.y
      value: 0
      objectReference: {fileID: 0}
    - target: {fileID: 8492474969869924815, guid: 7ed9f69a450436c4281690d3df013617,
        type: 3}
      propertyPath: m_AnchorMin.x
      value: 0
      objectReference: {fileID: 0}
    m_RemovedComponents: []
  m_SourcePrefab: {fileID: 100100000, guid: 7ed9f69a450436c4281690d3df013617, type: 3}
