%YAML 1.1
%TAG !u! tag:unity3d.com,2011:
--- !u!1001 &993228808249988536
PrefabInstance:
  m_ObjectHideFlags: 0
  serializedVersion: 2
  m_Modification:
    m_TransformParent: {fileID: 0}
    m_Modifications:
    - target: {fileID: 4431080148697493262, guid: 997169a6a63f8d842a3b958dd864064f,
        type: 3}
      propertyPath: interactableInfo
      value: 
      objectReference: {fileID: 11400000, guid: 7bd2405ae0ae6b74d85b6daebc550972,
        type: 2}
    - target: {fileID: 5908825667438424859, guid: 997169a6a63f8d842a3b958dd864064f,
        type: 3}
      propertyPath: m_Color.b
      value: 1
      objectReference: {fileID: 0}
    - target: {fileID: 5908825667438424859, guid: 997169a6a63f8d842a3b958dd864064f,
        type: 3}
      propertyPath: m_Color.g
      value: 0.8359324
      objectReference: {fileID: 0}
    - target: {fileID: 5908825667438424859, guid: 997169a6a63f8d842a3b958dd864064f,
        type: 3}
      propertyPath: m_Color.r
      value: 0.6179246
      objectReference: {fileID: 0}
    - target: {fileID: 7797801103427847745, guid: 997169a6a63f8d842a3b958dd864064f,
        type: 3}
      propertyPath: m_Name
      value: Blue_MechanicalDoor Variant
      objectReference: {fileID: 0}
    - target: {fileID: 7797801103427847746, guid: 997169a6a63f8d842a3b958dd864064f,
        type: 3}
      propertyPath: m_RootOrder
      value: 0
      objectReference: {fileID: 0}
    - target: {fileID: 7797801103427847746, guid: 997169a6a63f8d842a3b958dd864064f,
        type: 3}
      propertyPath: m_LocalPosition.x
      value: -5.62
      objectReference: {fileID: 0}
    - target: {fileID: 7797801103427847746, guid: 997169a6a63f8d842a3b958dd864064f,
        type: 3}
      propertyPath: m_LocalPosition.y
      value: -0.35
      objectReference: {fileID: 0}
    - target: {fileID: 7797801103427847746, guid: 997169a6a63f8d842a3b958dd864064f,
        type: 3}
      propertyPath: m_LocalPosition.z
      value: 0
      objectReference: {fileID: 0}
    - target: {fileID: 7797801103427847746, guid: 997169a6a63f8d842a3b958dd864064f,
        type: 3}
      propertyPath: m_LocalRotation.w
      value: 1
      objectReference: {fileID: 0}
    - target: {fileID: 7797801103427847746, guid: 997169a6a63f8d842a3b958dd864064f,
        type: 3}
      propertyPath: m_LocalRotation.x
      value: -0
      objectReference: {fileID: 0}
    - target: {fileID: 7797801103427847746, guid: 997169a6a63f8d842a3b958dd864064f,
        type: 3}
      propertyPath: m_LocalRotation.y
      value: -0
      objectReference: {fileID: 0}
    - target: {fileID: 7797801103427847746, guid: 997169a6a63f8d842a3b958dd864064f,
        type: 3}
      propertyPath: m_LocalRotation.z
      value: -0
      objectReference: {fileID: 0}
    - target: {fileID: 7797801103427847746, guid: 997169a6a63f8d842a3b958dd864064f,
        type: 3}
      propertyPath: m_LocalEulerAnglesHint.x
      value: 0
      objectReference: {fileID: 0}
    - target: {fileID: 7797801103427847746, guid: 997169a6a63f8d842a3b958dd864064f,
        type: 3}
      propertyPath: m_LocalEulerAnglesHint.y
      value: 0
      objectReference: {fileID: 0}
    - target: {fileID: 7797801103427847746, guid: 997169a6a63f8d842a3b958dd864064f,
        type: 3}
      propertyPath: m_LocalEulerAnglesHint.z
      value: 0
      objectReference: {fileID: 0}
    m_RemovedComponents: []
  m_SourcePrefab: {fileID: 100100000, guid: 997169a6a63f8d842a3b958dd864064f, type: 3}
