%YAML 1.1
%TAG !u! tag:unity3d.com,2011:
--- !u!1001 &5262597763881975658
PrefabInstance:
  m_ObjectHideFlags: 0
  serializedVersion: 2
  m_Modification:
    m_TransformParent: {fileID: 0}
    m_Modifications:
    - target: {fileID: 496226986319307943, guid: 07174f0cc7855ce43aa7b3df7b1e01b6,
        type: 3}
      propertyPath: glowColor.b
      value: 0
      objectReference: {fileID: 0}
    - target: {fileID: 496226986319307943, guid: 07174f0cc7855ce43aa7b3df7b1e01b6,
        type: 3}
      propertyPath: glowColor.g
      value: 0.903612
      objectReference: {fileID: 0}
    - target: {fileID: 496226986319307943, guid: 07174f0cc7855ce43aa7b3df7b1e01b6,
        type: 3}
      propertyPath: glowColor.r
      value: 1
      objectReference: {fileID: 0}
    - target: {fileID: 792924158343644261, guid: 07174f0cc7855ce43aa7b3df7b1e01b6,
        type: 3}
      propertyPath: m_RootOrder
      value: 0
      objectReference: {fileID: 0}
    - target: {fileID: 792924158343644261, guid: 07174f0cc7855ce43aa7b3df7b1e01b6,
        type: 3}
      propertyPath: m_LocalPosition.x
      value: -9.916466
      objectReference: {fileID: 0}
    - target: {fileID: 792924158343644261, guid: 07174f0cc7855ce43aa7b3df7b1e01b6,
        type: 3}
      propertyPath: m_LocalPosition.y
      value: 0.033784866
      objectReference: {fileID: 0}
    - target: {fileID: 792924158343644261, guid: 07174f0cc7855ce43aa7b3df7b1e01b6,
        type: 3}
      propertyPath: m_LocalPosition.z
      value: 0
      objectReference: {fileID: 0}
    - target: {fileID: 792924158343644261, guid: 07174f0cc7855ce43aa7b3df7b1e01b6,
        type: 3}
      propertyPath: m_LocalRotation.w
      value: 1
      objectReference: {fileID: 0}
    - target: {fileID: 792924158343644261, guid: 07174f0cc7855ce43aa7b3df7b1e01b6,
        type: 3}
      propertyPath: m_LocalRotation.x
      value: 0
      objectReference: {fileID: 0}
    - target: {fileID: 792924158343644261, guid: 07174f0cc7855ce43aa7b3df7b1e01b6,
        type: 3}
      propertyPath: m_LocalRotation.y
      value: 0
      objectReference: {fileID: 0}
    - target: {fileID: 792924158343644261, guid: 07174f0cc7855ce43aa7b3df7b1e01b6,
        type: 3}
      propertyPath: m_LocalRotation.z
      value: 0
      objectReference: {fileID: 0}
    - target: {fileID: 792924158343644261, guid: 07174f0cc7855ce43aa7b3df7b1e01b6,
        type: 3}
      propertyPath: m_LocalEulerAnglesHint.x
      value: 0
      objectReference: {fileID: 0}
    - target: {fileID: 792924158343644261, guid: 07174f0cc7855ce43aa7b3df7b1e01b6,
        type: 3}
      propertyPath: m_LocalEulerAnglesHint.y
      value: 0
      objectReference: {fileID: 0}
    - target: {fileID: 792924158343644261, guid: 07174f0cc7855ce43aa7b3df7b1e01b6,
        type: 3}
      propertyPath: m_LocalEulerAnglesHint.z
      value: 0
      objectReference: {fileID: 0}
    - target: {fileID: 792924158343644315, guid: 07174f0cc7855ce43aa7b3df7b1e01b6,
        type: 3}
      propertyPath: m_Name
      value: YellowMechanismHandle Variant
      objectReference: {fileID: 0}
    - target: {fileID: 2009853272329007277, guid: 07174f0cc7855ce43aa7b3df7b1e01b6,
        type: 3}
      propertyPath: m_Color.b
      value: 0.08627451
      objectReference: {fileID: 0}
    - target: {fileID: 2009853272329007277, guid: 07174f0cc7855ce43aa7b3df7b1e01b6,
        type: 3}
      propertyPath: m_Color.g
      value: 0.68235296
      objectReference: {fileID: 0}
    - target: {fileID: 2009853272329007277, guid: 07174f0cc7855ce43aa7b3df7b1e01b6,
        type: 3}
      propertyPath: m_Color.r
      value: 0.94509804
      objectReference: {fileID: 0}
    - target: {fileID: 2009853272329007277, guid: 07174f0cc7855ce43aa7b3df7b1e01b6,
        type: 3}
      propertyPath: m_Materials.Array.data[0]
      value: 
      objectReference: {fileID: 0}
    - target: {fileID: 2367986643322611761, guid: 07174f0cc7855ce43aa7b3df7b1e01b6,
        type: 3}
      propertyPath: interactableInfo
      value: 
      objectReference: {fileID: 11400000, guid: f7d9139c8c072164cae3026fe2ab3732,
        type: 2}
    m_RemovedComponents: []
  m_SourcePrefab: {fileID: 100100000, guid: 07174f0cc7855ce43aa7b3df7b1e01b6, type: 3}
