%YAML 1.1
%TAG !u! tag:unity3d.com,2011:
--- !u!114 &11400000
MonoBehaviour:
  m_ObjectHideFlags: 0
  m_CorrespondingSourceObject: {fileID: 0}
  m_PrefabInstance: {fileID: 0}
  m_PrefabAsset: {fileID: 0}
  m_GameObject: {fileID: 0}
  m_Enabled: 1
  m_EditorHideFlags: 0
  m_Script: {fileID: 11500000, guid: 6ce1f7fd2aa6f324da0e7341641f453d, type: 3}
  m_Name: BlueMechanismDoor 1
  m_EditorClassIdentifier: 
  type: 1
  locked: 1
  OpenDoorSFX: event:/SlidingDoorSFX
